Ecological Behaviour Analysis in Malaysia
…
##   sd(Income)
## 1   1.124512

The data collection for gender was not equally distributed, therefore the most frequent gender female that denotes as (1) was selected for the analysis.

grid_group3_model2 <- Centered_data_m1 %>% 
  data_grid(green_attitude, Income = c(-1.13, 0.00, 1.13),
            female = 1, Age = 0, Education = 0,Ethnicity = 0) %>% 
  add_predictions(model2) %>% 
  rename(predicted_green_behaviour = pred)

grid_group3_model2

## # A tibble: 42 x 7
##    green_attitude Income female   Age Education Ethnicity predicted_green_behav~
##             <dbl>  <dbl>  <dbl> <dbl>     <dbl>     <dbl>                  <dbl>
##  1         -1.59   -1.13      1     0         0         0                   2.77
##  2         -1.59    0         1     0         0         0                   2.99
##  3         -1.59    1.13      1     0         0         0                   3.22
##  4         -1.39   -1.13      1     0         0         0                   2.88
##  5         -1.39    0         1     0         0         0                   3.08
##  6         -1.39    1.13      1     0         0         0                   3.28
##  7         -1.19   -1.13      1     0         0         0                   3.00
##  8         -1.19    0         1     0         0         0                   3.17
##  9         -1.19    1.13      1     0         0         0                   3.34
## 10         -0.986  -1.13      1     0         0         0                   3.11
## # ... with 32 more rows

Undo the mean centering for (green attitude) variable .

grid <- grid_group3_model2 %>% 
  mutate(green_attitude= green_attitude + mean(green_data$green_attitude), Income = factor(as.double(factor(Income))))

grid

## # A tibble: 42 x 7
##    green_attitude Income female   Age Education Ethnicity predicted_green_behav~
##             <dbl> <fct>   <dbl> <dbl>     <dbl>     <dbl>                  <dbl>
##  1            2.4 1           1     0         0         0                   2.77
##  2            2.4 2           1     0         0         0                   2.99
##  3            2.4 3           1     0         0         0                   3.22
##  4            2.6 1           1     0         0         0                   2.88
##  5            2.6 2           1     0         0         0                   3.08
##  6            2.6 3           1     0         0         0                   3.28
##  7            2.8 1           1     0         0         0                   3.00
##  8            2.8 2           1     0         0         0                   3.17
##  9            2.8 3           1     0         0         0                   3.34
## 10            3   1           1     0         0         0                   3.11
## # ... with 32 more rows
…
